____________________________________________________________________
			P o w e r T O P

____________________________________________________________________
 *  *  *   System Information   *  *  *

PowerTOP Version;2.12 ran at Thu May 13 17:17:34 2021

Kernel Version;Linux version 4.18.0-301.1.el8.x86_64
System Name;Intel Corporation440BX Desktop Reference PlatformNone
CPU Information;2 AMD Ryzen 5 2500U with Radeon Vega Mobile Gfx
OS Information;CentOS Stream release 8

Target: 1 units/s;System:  209.9 wakeup/s;CPU:  3.4% usage;GPU: 0 ops/s;GFX: 0 wakeups/s;VFS: 0 ops/s;

____________________________________________________________________
 *  *  *   Top 10 Power Consumers   *  *  *

Usage;Events/s;Category;Description;PW Estimate
  0.0%; 27.2;Process;[PID 11] [rcu_sched];  108 mW  
  0.1%; 26.9;Timer;tick_sched_timer;  108 mW  
  0.1%; 16.7;Process;[PID 630] [xfsaild/dm-0]; 66.9 mW  
  0.3%; 14.4;Interrupt;[18] uhci_hcd:usb2; 61.0 mW  
  0.1%; 10.2;Process;[PID 907] /usr/bin/vmtoolsd ; 41.9 mW  
  0.0%;  8.2;Process;[PID 1206] /usr/bin/influxd ; 32.6 mW  
  0.0%;  7.6;kWork;kfree_rcu_monitor; 29.9 mW  
  0.0%;  6.9;kWork;gc_worker; 27.3 mW  
  0.1%;  6.6;Timer;hrtimer_wakeup; 27.3 mW  
  0.0%;  6.3;Process;[PID 1014] /usr/bin/containerd ; 25.3 mW  

____________________________________________________________________
 *  *  *   Processor Idle State Report   *  *  *

Package;0
POLL;  0.0%
C1; 98.4%
;
;

CPU;0
POLL;  0.0%;   0.0 ms
C1; 98.4%;   9.1 ms
;;
;;

Package;2
POLL;  0.0%
C1; 98.2%
;
;

CPU;1
POLL;  0.0%;   0.0 ms
C1; 98.2%;   8.7 ms
;;
;;

____________________________________________________________________
 *  *  *   Processor Frequency Report   *  *  *

Package;0
Idle; 100.0% 
;
;
;
;

CPU 0
Idle; 100.0% 
;
;

Package;2
Idle; 100.0% 
;
;
;
;

CPU 1
Idle; 100.0% 
;
;

____________________________________________________________________
 *  *  *   Overview of Software Power Consumers   *  *  *

Usage;Wakeups/s;GPU ops/s;Disk IO/s;GFX Wakeups/s;Category;Description;PW Estimate
308.2 us/s; 27.2;;;;Process;[PID 11] [rcu_sched];  108 mW  
  0.9 ms/s; 26.9;;;;Timer;tick_sched_timer;  108 mW  
  0.7 ms/s; 16.7;;;;Process;[PID 630] [xfsaild/dm-0]; 66.9 mW  
  2.7 ms/s; 14.4;;;;Interrupt;[18] uhci_hcd:usb2; 61.0 mW  
  1.0 ms/s; 10.2;;;;Process;[PID 907] /usr/bin/vmtoolsd ; 41.9 mW  
254.4 us/s;  8.2;;;;Process;[PID 1206] /usr/bin/influxd ; 32.6 mW  
 19.6 us/s;  7.6;;;;kWork;kfree_rcu_monitor; 29.9 mW  
143.0 us/s;  6.9;;;;kWork;gc_worker; 27.3 mW  
  0.8 ms/s;  6.6;;;;Timer;hrtimer_wakeup; 27.3 mW  
237.0 us/s;  6.3;;;;Process;[PID 1014] /usr/bin/containerd ; 25.3 mW  
 34.8 us/s;  6.3;;;;kWork;kfree_rcu_work; 24.8 mW  
676.5 us/s;  4.8;;;;kWork;vmw_fb_dirty_flush; 20.0 mW  
 51.7 us/s;  4.7;;;;kWork;fb_flashcursor; 18.7 mW  
 26.9 us/s;  4.5;;;;kWork;vmw_fence_work_func; 17.8 mW  
  1.8 us/s;  3.8;;;;kWork;hub_event; 15.0 mW  
  1.8 ms/s;  3.1;;;;Process;[PID 22228] [kworker/1:6]; 14.8 mW  
380.6 us/s;  3.2;;;;Process;[PID 1062] /usr/bin/containerd ; 13.0 mW  
149.9 us/s;  3.2;;;;Process;[PID 1023] /usr/bin/containerd ; 12.7 mW  
  3.5 ms/s;  1.7;;;;Process;[PID 1211] /usr/bin/influxd ; 12.2 mW  
340.7 us/s;  2.7;;;;Process;[PID 1016] /usr/bin/containerd ; 11.2 mW  
122.6 us/s;  2.6;;;;Process;[PID 985] /usr/bin/telegraf -config /etc/telegraf/telegraf.conf -config-directory /etc/telegraf/telegraf.d ; 10.3 mW  
  1.6 ms/s;  1.4;;;;Process;[PID 57092] /usr/bin/influxd ; 8.06 mW  
 85.3 us/s;  1.7;;;;Process;[PID 21953] mysqld ; 6.85 mW  
 73.4 us/s;  1.7;;;;Process;[PID 21962] mysqld ; 6.64 mW  
 60.9 us/s;  1.7;;;;Process;[PID 21954] mysqld ; 6.62 mW  
 88.0 us/s;  1.6;;;;Process;[PID 21956] mysqld ; 6.27 mW  
  2.7 ms/s;  0.5;;;;Process;[PID 1572] /usr/bin/influxd ; 6.07 mW  
  1.0 ms/s;  1.2;;;;Interrupt;[7] sched(softirq); 6.06 mW  
  2.5 ms/s;  0.5;;;;Process;[PID 989] /usr/bin/telegraf -config /etc/telegraf/telegraf.conf -config-directory /etc/telegraf/telegraf.d ; 5.89 mW  
 69.5 us/s;  1.5;;;;Process;[PID 21957] mysqld ; 5.84 mW  
 49.2 us/s;  1.5;;;;Process;[PID 21955] mysqld ; 5.81 mW  
 34.6 us/s;  1.4;;;;Process;[PID 1212] /usr/bin/dockerd -H fd:// --containerd=/run/containerd/containerd.sock ; 5.39 mW  
  1.8 ms/s;  0.4;;;;Process;[PID 1073] /usr/bin/telegraf -config /etc/telegraf/telegraf.conf -config-directory /etc/telegraf/telegraf.d ; 4.35 mW  
227.1 us/s;  1.0;;;;Process;[PID 1815] /usr/bin/containerd ; 4.31 mW  
 44.6 us/s;  1.1;;;;Process;[PID 21959] mysqld ; 4.22 mW  
  8.5 us/s;  1.0;;;;kWork;vmballoon_work; 3.97 mW  
  8.3 us/s;  1.0;;;;kWork;mpt_fault_reset_work; 3.97 mW  
 62.7 us/s;  1.0;;;;Process;[PID 21966] mysqld ; 3.85 mW  
 57.7 us/s;  1.0;;;;Process;[PID 21960] mysqld ; 3.85 mW  
  2.7 us/s;  0.9;;;;kWork;sync_hw_clock; 3.56 mW  
121.6 us/s;  0.9;;;;Process;[PID 1183] /usr/libexec/platform-python -Es /usr/sbin/tuned -l -P ; 3.55 mW  
 48.4 us/s;  0.9;;;;Process;[PID 21965] mysqld ; 3.44 mW  
 39.9 us/s;  0.9;;;;Process;[PID 21963] mysqld ; 3.42 mW  
 38.0 us/s;  0.9;;;;Interrupt;[16] vmwgfx; 3.42 mW  
398.5 us/s;  0.6;;;;Process;[PID 22037] [kworker/1:4]; 2.99 mW  
107.4 us/s;  0.7;;;;Process;[PID 1204] /usr/sbin/rsyslogd -n ; 2.94 mW  
 51.9 us/s;  0.7;;;;Process;[PID 21968] mysqld ; 2.85 mW  
 51.3 us/s;  0.7;;;;Process;[PID 1230] /usr/bin/dockerd -H fd:// --containerd=/run/containerd/containerd.sock ; 2.85 mW  
 16.9 us/s;  0.7;;;;Process;[PID 974] /usr/bin/gitlab-runner run --working-directory /home/gitlab-runner --config /etc/gitlab-runner/config.toml --service ; 2.79 mW  
  1.4 ms/s; 0.15;;;;kWork;blk_mq_run_work_fn; 2.71 mW  
 53.0 us/s;  0.6;;;;Process;[PID 21958] mysqld ; 2.46 mW  
 40.6 us/s;  0.6;;;;Process;[PID 1232] /usr/bin/dockerd -H fd:// --containerd=/run/containerd/containerd.sock ; 2.44 mW  
 15.2 us/s;  0.6;;;;Process;[PID 1000] /usr/bin/gitlab-runner run --working-directory /home/gitlab-runner --config /etc/gitlab-runner/config.toml --service; 2.40 mW  
361.2 us/s;  0.5;;;;Interrupt;[3] net_rx(softirq); 2.34 mW  
191.8 us/s;  0.5;;;;Process;[PID 21636] haproxy -W -db -f /usr/local/etc/haproxy/haproxy.cfg ; 2.28 mW  
644.8 us/s;  0.3;;;;kWork;e1000_watchdog; 2.19 mW  
 38.2 us/s;  0.5;;;;Process;[PID 21961] mysqld ; 2.04 mW  
  1.0 ms/s; 0.10;;;;Process;[PID 2327] /usr/bin/telegraf -config /etc/telegraf/telegraf.conf -config-directory /etc/telegraf/telegraf.d ; 1.90 mW  
 41.8 us/s;  0.4;;;;Process;[PID 975] /usr/bin/gitlab-runner run --working-directory /home/gitlab-runner --config /etc/gitlab-runner/config.toml --service ; 1.45 mW  
 14.7 us/s;  0.4;;;;kWork;vmstat_shepherd; 1.41 mW  
  0.0 us/s;  0.4;;;;kWork;disk_events_workfn; 1.38 mW  
 32.1 us/s;  0.3;;;;Interrupt;[6] tasklet(softirq); 1.24 mW  
  0.8 ms/s;;;;;Timer;rh_timer_func; 1.20 mW  
473.0 us/s; 0.10;;;;kWork;wb_workfn; 1.13 mW  
151.1 us/s; 0.20;;;;Process;[PID 57144] powertop -C ; 1.03 mW  
139.8 us/s; 0.20;;;;Process;[PID 908] /usr/sbin/NetworkManager --no-daemon ; 1.01 mW  
  2.0 us/s; 0.25;;;;Process;[PID 16] [watchdog/1];  992 uW  
  0.9 us/s; 0.25;;;;kWork;blk_mq_timeout_work;  990 uW  
 43.9 us/s; 0.20;;;;Process;[PID 18] [ksoftirqd/1];  859 uW  
 27.2 us/s; 0.20;;;;Process;[PID 1490] registry serve /etc/docker/registry/config.yml ;  833 uW  
 20.7 us/s; 0.20;;;;Process;[PID 931] /usr/sbin/NetworkManager --no-daemon ;  823 uW  
 17.6 us/s; 0.20;;;;Process;[PID 961] /usr/libexec/sssd/sssd_be --domain implicit_files --uid 0 --gid 0 --logger=files ;  818 uW  
 10.2 us/s; 0.20;;;;Process;[PID 10] [ksoftirqd/0];  807 uW  
  9.1 us/s; 0.20;;;;Process;[PID 1546] registry serve /etc/docker/registry/config.yml ;  805 uW  
  8.3 us/s; 0.20;;;;Process;[PID 21975] mysqld ;  804 uW  
  7.5 us/s; 0.20;;;;Process;[PID 21967] mysqld ;  803 uW  
432.7 us/s;;;;;Interrupt;[9] RCU(softirq);  675 uW  
 18.6 us/s; 0.15;;;;Process;[PID 1217] /usr/bin/gitlab-runner run --working-directory /home/gitlab-runner --config /etc/gitlab-runner/config.toml --service;  622 uW  
  8.9 us/s; 0.15;;;;Process;[PID 1553] registry serve /etc/docker/registry/config.yml ;  607 uW  
  8.0 us/s; 0.15;;;;kWork;xfs_end_io;  606 uW  
  3.9 us/s; 0.15;;;;kWork;xlog_ioend_work;  599 uW  
  2.0 us/s; 0.15;;;;Process;[PID 13] [watchdog/0];  596 uW  
116.8 us/s; 0.10;;;;Process;[PID 724] /usr/lib/systemd/systemd-journald ;  578 uW  
369.6 us/s;;;;;Process;[PID 57141] [kworker/0:2];  577 uW  
353.7 us/s;;;;;Interrupt;[1] timer(softirq);  552 uW  
340.5 us/s;;;;;Timer;process_timeout;  531 uW  
 31.7 us/s; 0.10;;;;Process;[PID 22079] /usr/bin/containerd-shim-runc-v2 -namespace moby -id 757e9d7644f3f780934beaf3c1571dd2a88fe5a1457fda9fe120c381f306fc;  445 uW  
 12.5 us/s; 0.10;;;;Process;[PID 992] /usr/libexec/sssd/sssd_nss --uid 0 --gid 0 --logger=files ;  415 uW  
  5.6 us/s; 0.10;;;;Timer;sched_rt_period_timer;  404 uW  
  3.5 us/s; 0.10;;;;Process;[PID 21974] mysqld ;  401 uW  
  2.7 us/s; 0.10;;;;Timer;posix_timer_fn;  400 uW  
  2.4 us/s; 0.10;;;;Process;[PID 21702] /usr/bin/docker-proxy -proto tcp -host-ip :: -host-port 3306 -container-ip 172.28.0.6 -container-port 3306 ;  399 uW  
  2.4 us/s; 0.10;;;;Process;[PID 22144] /usr/bin/containerd-shim-runc-v2 -namespace moby -id af8a727d7255b583c51c5078ea89d82d924d0a5faf61da67d6db8af66a8ba0;  399 uW  
  2.2 us/s; 0.10;;;;Process;[PID 21715] /usr/bin/containerd-shim-runc-v2 -namespace moby -id fee0625433aede767ee4adb2c6d39b15863ac56012fc9d15e89add3c1a05f0;  399 uW  
  0.5 us/s; 0.10;;;;kWork;xfs_buf_ioend_work;  396 uW  
  0.3 us/s; 0.10;;;;kWork;xfs_log_worker;  396 uW  
230.5 us/s;;;;;Timer;delayed_work_timer_fn;  360 uW  
 72.9 us/s; 0.05;;;;Process;[PID 22130] /usr/bin/containerd-shim-runc-v2 -namespace moby -id e291cefbfd0f0459865bcd867cc570bf260111d8cb2f57c0eab19d1574cefe;  311 uW  
 57.3 us/s; 0.05;;;;Process;[PID 22319] /usr/bin/containerd-shim-runc-v2 -namespace moby -id e291cefbfd0f0459865bcd867cc570bf260111d8cb2f57c0eab19d1574cefe;  287 uW  
 18.0 us/s; 0.05;;;;Process;[PID 1595] sshd: root@pts/1 ;  226 uW  


The system baseline power is estimated at:  1.77  W;
____________________________________________________________________
 *  *  *   Device Power Report   *  *  *

Usage;Device Name;PW Estimate
  3.4%;CPU misc;  883 mW   
  3.4%;CPU misc;  883 mW   
  3.4%;CPU core;    0 mW   
  3.4%;DRAM;    0 mW   
  3.4%;CPU core;    0 mW   
  3.4%;DRAM;    0 mW   
100.0%;PCI Device: VMware PCI Express Root Port;           
100.0%;PCI Device: Intel Corporation 82545EM Gigabit Ethernet Controller (Copper);           
100.0%;PCI Device: VMware PCI Express Root Port;           
100.0%;Radio device: btusb;           
100.0%;USB device: VMware Virtual USB Mouse (VMware);           
100.0%;PCI Device: VMware PCI Express Root Port;           
100.0%;PCI Device: VMware PCI Express Root Port;           
100.0%;PCI Device: VMware PCI Express Root Port;           
100.0%;PCI Device: VMware PCI Express Root Port;           
100.0%;PCI Device: VMware PCI Express Root Port;           
100.0%;PCI Device: VMware PCI Express Root Port;           
100.0%;USB device: UHCI Host Controller;           
100.0%;PCI Device: VMware PCI Express Root Port;           
100.0%;PCI Device: VMware PCI Express Root Port;           
100.0%;PCI Device: VMware PCI Express Root Port;           
100.0%;PCI Device: VMware PCI Express Root Port;           
100.0%;PCI Device: VMware PCI Express Root Port;           
100.0%;PCI Device: VMware PCI Express Root Port;           
100.0%;PCI Device: VMware USB2 EHCI Controller;           
100.0%;PCI Device: VMware PCI Express Root Port;           
100.0%;PCI Device: VMware PCI Express Root Port;           
100.0%;PCI Device: Intel Corporation 440BX/ZX/DX - 82443BX/ZX/DX AGP bridge;           
100.0%;PCI Device: VMware USB1.1 UHCI Controller;           
100.0%;PCI Device: Broadcom / LSI 53c1030 PCI-X Fusion-MPT Dual Ultra320 SCSI;           
100.0%;PCI Device: VMware PCI Express Root Port;           
100.0%;PCI Device: VMware PCI Express Root Port;           
100.0%;PCI Device: Intel Corporation 82371AB/EB/MB PIIX4 ISA;           
100.0%;PCI Device: VMware PCI Express Root Port;           
100.0%;PCI Device: VMware PCI Express Root Port;           
100.0%;PCI Device: Ensoniq ES1371/ES1373 / Creative Labs CT2518;           
100.0%;PCI Device: VMware PCI Express Root Port;           
100.0%;PCI Device: VMware PCI Express Root Port;           
100.0%;PCI Device: VMware Virtual Machine Communication Interface;           
100.0%;PCI Device: VMware PCI Express Root Port;           
100.0%;PCI Device: Intel Corporation 440BX/ZX/DX - 82443BX/ZX/DX Host bridge;           
100.0%;PCI Device: VMware PCI Express Root Port;           
100.0%;PCI Device: VMware PCI Express Root Port;           
100.0%;PCI Device: VMware PCI Express Root Port;           
100.0%;PCI Device: VMware PCI Express Root Port;           
100.0%;PCI Device: VMware PCI Express Root Port;           
100.0%;PCI Device: Intel Corporation 82371AB/EB/MB PIIX4 ACPI;           
100.0%;PCI Device: VMware PCI Express Root Port;           
100.0%;PCI Device: VMware PCI Express Root Port;           
100.0%;PCI Device: VMware PCI Express Root Port;           
100.0%;PCI Device: VMware PCI Express Root Port;           
100.0%;PCI Device: Intel Corporation 82371AB/EB/MB PIIX4 IDE;           
100.0%;PCI Device: VMware PCI bridge;           
100.0%;PCI Device: VMware SVGA II Adapter;           
 10.1%;USB device: VMware Virtual USB Hub;           
  5.1 pkts/s;nic:veth303682d;           
  1.9 pkts/s;Network interface: ens33 (e1000);           
  1.7 pkts/s;nic:vethdd07168;           
  1.7 pkts/s;nic:veth59893d2;           
  1.6 pkts/s;nic:vethaeb993d;           
  0.0 pkts/s;nic:veth5e01f20;           
  0.0 pkts/s;nic:veth426b4a4;           
  0.0 pkts/s;nic:docker0;           
  0.0 pkts/s;nic:br-0006d621b7b5;           
  0.0 pkts/s;nic:br-d6af6cd8a2d9;           
  0.0%;USB device: Virtual Bluetooth Adapter (VMware);           
  0.0%;USB device: EHCI Host Controller;           
  0.0%;runtime-ACPI0003:00;           
  0.0%;runtime-platform-framebuffer.0;           
  0.0%;runtime-intel_rapl_msr.0;           
  0.0%;runtime-Fixed MDIO bus.0;           
  0.0%;runtime-PNP0001:00;           
  0.0%;runtime-alarmtimer;           
  0.0%;runtime-PNP0800:00;           
  0.0%;runtime-serial8250;           
  0.0%;runtime-i8042;           
  0.0%;runtime-pcspkr;           
____________________________________________________________________
 *  *  *   Process Device Activity   *  *  *

Process;Device
systemd;/dev/autofs
;/dev/kmsg
;/dev/rfkill
systemd-journal;/dev/kmsg
tuned;/dev/cpu_dma_latency
systemd-logind;/dev/input/event0
;/dev/input/event1

____________________________________________________________________
 *  *  *   AHCI ALPM Residency Statistics - Not supported on this macine   *  *  *

____________________________________________________________________
 *  *  *   Software Settings in Need of Tuning   *  *  *

Description;Script
VM writeback timeout;echo '1500' > '/proc/sys/vm/dirty_writeback_centisecs';
Autosuspend for USB device VMware Virtual USB Mouse [VMware];echo 'auto' > '/sys/bus/usb/devices/2-1/power/control';
Runtime PM for PCI Device VMware PCI Express Root Port;echo 'auto' > '/sys/bus/pci/devices/0000:00:17.2/power/control';
Runtime PM for PCI Device VMware PCI Express Root Port;echo 'auto' > '/sys/bus/pci/devices/0000:00:15.3/power/control';
Runtime PM for PCI Device VMware PCI Express Root Port;echo 'auto' > '/sys/bus/pci/devices/0000:00:18.5/power/control';
Runtime PM for PCI Device VMware SVGA II Adapter;echo 'auto' > '/sys/bus/pci/devices/0000:00:0f.0/power/control';
Runtime PM for PCI Device VMware PCI Express Root Port;echo 'auto' > '/sys/bus/pci/devices/0000:00:17.0/power/control';
Runtime PM for disk sda;echo 'auto' > '/sys/block/sda/device/power/control';
Runtime PM for PCI Device VMware PCI Express Root Port;echo 'auto' > '/sys/bus/pci/devices/0000:00:16.6/power/control';
Runtime PM for PCI Device VMware PCI Express Root Port;echo 'auto' > '/sys/bus/pci/devices/0000:00:18.3/power/control';
Runtime PM for PCI Device VMware PCI Express Root Port;echo 'auto' > '/sys/bus/pci/devices/0000:00:15.1/power/control';
Runtime PM for PCI Device VMware PCI Express Root Port;echo 'auto' > '/sys/bus/pci/devices/0000:00:16.4/power/control';
Runtime PM for PCI Device Broadcom / LSI 53c1030 PCI-X Fusion-MPT Dual Ultra320 SCSI;echo 'auto' > '/sys/bus/pci/devices/0000:00:10.0/power/control';
Runtime PM for PCI Device VMware PCI Express Root Port;echo 'auto' > '/sys/bus/pci/devices/0000:00:18.1/power/control';
Runtime PM for PCI Device VMware USB1.1 UHCI Controller;echo 'auto' > '/sys/bus/pci/devices/0000:02:00.0/power/control';
Runtime PM for PCI Device Intel Corporation 440BX/ZX/DX - 82443BX/ZX/DX AGP bridge;echo 'auto' > '/sys/bus/pci/devices/0000:00:01.0/power/control';
Runtime PM for PCI Device VMware PCI Express Root Port;echo 'auto' > '/sys/bus/pci/devices/0000:00:17.7/power/control';
Runtime PM for PCI Device VMware PCI Express Root Port;echo 'auto' > '/sys/bus/pci/devices/0000:00:16.2/power/control';
Runtime PM for PCI Device VMware USB2 EHCI Controller;echo 'auto' > '/sys/bus/pci/devices/0000:02:03.0/power/control';
Runtime PM for PCI Device VMware PCI Express Root Port;echo 'auto' > '/sys/bus/pci/devices/0000:00:17.5/power/control';
Runtime PM for PCI Device VMware PCI Express Root Port;echo 'auto' > '/sys/bus/pci/devices/0000:00:16.0/power/control';
Runtime PM for PCI Device VMware PCI Express Root Port;echo 'auto' > '/sys/bus/pci/devices/0000:00:15.6/power/control';
Runtime PM for PCI Device Intel Corporation 82371AB/EB/MB PIIX4 ISA;echo 'auto' > '/sys/bus/pci/devices/0000:00:07.0/power/control';
Runtime PM for PCI Device VMware PCI Express Root Port;echo 'auto' > '/sys/bus/pci/devices/0000:00:17.3/power/control';
Runtime PM for PCI Device VMware PCI Express Root Port;echo 'auto' > '/sys/bus/pci/devices/0000:00:18.6/power/control';
Runtime PM for PCI Device VMware PCI Express Root Port;echo 'auto' > '/sys/bus/pci/devices/0000:00:15.4/power/control';
Runtime PM for PCI Device VMware PCI Express Root Port;echo 'auto' > '/sys/bus/pci/devices/0000:00:18.7/power/control';
Runtime PM for PCI Device Intel Corporation 440BX/ZX/DX - 82443BX/ZX/DX Host bridge;echo 'auto' > '/sys/bus/pci/devices/0000:00:00.0/power/control';
Runtime PM for PCI Device VMware PCI Express Root Port;echo 'auto' > '/sys/bus/pci/devices/0000:00:17.1/power/control';
Runtime PM for PCI Device VMware PCI Express Root Port;echo 'auto' > '/sys/bus/pci/devices/0000:00:16.7/power/control';
Runtime PM for PCI Device VMware Virtual Machine Communication Interface;echo 'auto' > '/sys/bus/pci/devices/0000:00:07.7/power/control';
Runtime PM for PCI Device VMware PCI Express Root Port;echo 'auto' > '/sys/bus/pci/devices/0000:00:18.4/power/control';
Runtime PM for PCI Device VMware PCI Express Root Port;echo 'auto' > '/sys/bus/pci/devices/0000:00:15.2/power/control';
Runtime PM for PCI Device Ensoniq ES1371/ES1373 / Creative Labs CT2518;echo 'auto' > '/sys/bus/pci/devices/0000:02:02.0/power/control';
Runtime PM for PCI Device VMware PCI Express Root Port;echo 'auto' > '/sys/bus/pci/devices/0000:00:16.5/power/control';
Runtime PM for PCI Device VMware PCI Express Root Port;echo 'auto' > '/sys/bus/pci/devices/0000:00:18.2/power/control';
Runtime PM for PCI Device VMware PCI Express Root Port;echo 'auto' > '/sys/bus/pci/devices/0000:00:15.0/power/control';
Runtime PM for PCI Device VMware PCI Express Root Port;echo 'auto' > '/sys/bus/pci/devices/0000:00:16.3/power/control';
Runtime PM for PCI Device VMware PCI Express Root Port;echo 'auto' > '/sys/bus/pci/devices/0000:00:18.0/power/control';
Runtime PM for PCI Device VMware PCI Express Root Port;echo 'auto' > '/sys/bus/pci/devices/0000:00:15.5/power/control';
Runtime PM for PCI Device Intel Corporation 82545EM Gigabit Ethernet Controller (Copper);echo 'auto' > '/sys/bus/pci/devices/0000:02:01.0/power/control';
Runtime PM for PCI Device VMware PCI bridge;echo 'auto' > '/sys/bus/pci/devices/0000:00:11.0/power/control';
Runtime PM for PCI Device VMware PCI Express Root Port;echo 'auto' > '/sys/bus/pci/devices/0000:00:17.4/power/control';
Runtime PM for port ata1 of PCI device: Intel Corporation 82371AB/EB/MB PIIX4 IDE;echo 'auto' > '/sys/bus/pci/devices/0000:00:07.1/ata1/power/control';
Runtime PM for port ata2 of PCI device: Intel Corporation 82371AB/EB/MB PIIX4 IDE;echo 'auto' > '/sys/bus/pci/devices/0000:00:07.1/ata2/power/control';
Runtime PM for PCI Device Intel Corporation 82371AB/EB/MB PIIX4 IDE;echo 'auto' > '/sys/bus/pci/devices/0000:00:07.1/power/control';
Runtime PM for PCI Device VMware PCI Express Root Port;echo 'auto' > '/sys/bus/pci/devices/0000:00:15.7/power/control';
Runtime PM for PCI Device VMware PCI Express Root Port;echo 'auto' > '/sys/bus/pci/devices/0000:00:16.1/power/control';
Runtime PM for PCI Device VMware PCI Express Root Port;echo 'auto' > '/sys/bus/pci/devices/0000:00:17.6/power/control';
Runtime PM for PCI Device Intel Corporation 82371AB/EB/MB PIIX4 ACPI;echo 'auto' > '/sys/bus/pci/devices/0000:00:07.3/power/control';
____________________________________________________________________
 *  *  *   Untunable Software Issues   *  *  *

Description
____________________________________________________________________
 *  *  *   Optimal Tuned Software Settings   *  *  *

Description
NMI watchdog should be turned off
Bluetooth device interface status
Autosuspend for USB device UHCI Host Controller [usb2]
Autosuspend for USB device VMware Virtual USB Hub [2-2]
Autosuspend for USB device Virtual Bluetooth Adapter [VMware]
Autosuspend for USB device EHCI Host Controller [usb1]

____________________________________________________________________
 *  *  *   Wake status of the devices   *  *  *

Description;Script
Wake-on-lan status for device ens33;echo 'enabled' > '/sys/class/net/ens33/device/power/wakeup';
Wake status for USB device usb1;echo 'enabled' > '/sys/bus/usb/devices/usb1/power/wakeup';
Wake status for USB device 2-2;echo 'enabled' > '/sys/bus/usb/devices/2-2/power/wakeup';
Wake status for USB device usb2;echo 'enabled' > '/sys/bus/usb/devices/usb2/power/wakeup';
